==============================
Anders DX86 Pre-Built SW Images 
==============================
     = RELEASE NOTES =





> DX86 Release Package v.1.0 <

- Features Added
  1. 7.0", 10.1", 12.1" Anders Display Support

- Fixes
     N/A

- Known Issues
     N/A
